{
  "project_info": {
    "project_number": "770293342505",
    "firebase_url": "https://weborder-fab2e.firebaseio.com",
    "project_id": "weborder-fab2e",
    "storage_bucket": "weborder-fab2e.appspot.com"
  },
  "client": [
    {
      "client_info": {
        "mobilesdk_app_id": "1:770293342505:android:dff3dcf1059627bf271738",
        "android_client_info": {
          "package_name": "com.easipos.mobileordering.vanilla"
        }
      },
      "oauth_client": [
        {
          "client_id": "770293342505-352h6fm9jg7fr73vvd05ragid5490d13.apps.googleusercontent.com",
          "client_type": 1,
          "android_info": {
            "package_name": "com.easipos.mobileordering.vanilla",
            "certificate_hash": "927ec0ff0f9b1edaa9b7d0b2bb349efe880362cc"
          }
        },
        {
          "client_id": "770293342505-6o1rl8dor0suhcdpeu7tjkgfupgdqr34.apps.googleusercontent.com",
          "client_type": 1,
          "android_info": {
            "package_name": "com.easipos.mobileordering.vanilla",
            "certificate_hash": "2b45fd4d2f6f82ba5b93efe644a29f5815eb9858"
          }
        },
        {
          "client_id": "770293342505-he88tmqv7q3a83c8mka6v5b6b66j33gb.apps.googleusercontent.com",
          "client_type": 3
        }
      ],
      "api_key": [
        {
          "current_key": "AIzaSyC3SUcjTnkuP7IL9g23a7bRK2e4PCqf36k"
        }
      ],
      "services": {
        "appinvite_service": {
          "other_platform_oauth_client": [
            {
              "client_id": "770293342505-he88tmqv7q3a83c8mka6v5b6b66j33gb.apps.googleusercontent.com",
              "client_type": 3
            }
          ]
        }
      }
    },
    {
      "client_info": {
        "mobilesdk_app_id": "1:770293342505:android:072dc52e754444bb271738",
        "android_client_info": {
          "package_name": "com.easipos.mobileordering.vanilla.demo"
        }
      },
      "oauth_client": [
        {
          "client_id": "770293342505-gdgon0s7rjm7frpcle5k60jv4fok5hjq.apps.googleusercontent.com",
          "client_type": 1,
          "android_info": {
            "package_name": "com.easipos.mobileordering.vanilla.demo",
            "certificate_hash": "927ec0ff0f9b1edaa9b7d0b2bb349efe880362cc"
          }
        },
        {
          "client_id": "770293342505-ds90ih6khelas3h852ulotgmpfhpvp3b.apps.googleusercontent.com",
          "client_type": 1,
          "android_info": {
            "package_name": "com.easipos.mobileordering.vanilla.demo",
            "certificate_hash": "2b45fd4d2f6f82ba5b93efe644a29f5815eb9858"
          }
        },
        {
          "client_id": "770293342505-he88tmqv7q3a83c8mka6v5b6b66j33gb.apps.googleusercontent.com",
          "client_type": 3
        }
      ],
      "api_key": [
        {
          "current_key": "AIzaSyC3SUcjTnkuP7IL9g23a7bRK2e4PCqf36k"
        }
      ],
      "services": {
        "appinvite_service": {
          "other_platform_oauth_client": [
            {
              "client_id": "770293342505-he88tmqv7q3a83c8mka6v5b6b66j33gb.apps.googleusercontent.com",
              "client_type": 3
            }
          ]
        }
      }
    },
    {
      "client_info": {
        "mobilesdk_app_id": "1:770293342505:android:c45517e7bc1da036271738",
        "android_client_info": {
          "package_name": "com.easipos.tabletordering.vanilla"
        }
      },
      "oauth_client": [
        {
          "client_id": "770293342505-he88tmqv7q3a83c8mka6v5b6b66j33gb.apps.googleusercontent.com",
          "client_type": 3
        }
      ],
      "api_key": [
        {
          "current_key": "AIzaSyC3SUcjTnkuP7IL9g23a7bRK2e4PCqf36k"
        }
      ],
      "services": {
        "appinvite_service": {
          "other_platform_oauth_client": [
            {
              "client_id": "770293342505-he88tmqv7q3a83c8mka6v5b6b66j33gb.apps.googleusercontent.com",
              "client_type": 3
            }
          ]
        }
      }
    },
    {
      "client_info": {
        "mobilesdk_app_id": "1:770293342505:android:0cd79f258f65b35a271738",
        "android_client_info": {
          "package_name": "com.easipos.tabletordering.vanilla.demo"
        }
      },
      "oauth_client": [
        {
          "client_id": "770293342505-he88tmqv7q3a83c8mka6v5b6b66j33gb.apps.googleusercontent.com",
          "client_type": 3
        }
      ],
      "api_key": [
        {
          "current_key": "AIzaSyC3SUcjTnkuP7IL9g23a7bRK2e4PCqf36k"
        }
      ],
      "services": {
        "appinvite_service": {
          "other_platform_oauth_client": [
            {
              "client_id": "770293342505-he88tmqv7q3a83c8mka6v5b6b66j33gb.apps.googleusercontent.com",
              "client_type": 3
            }
          ]
        }
      }
    },
    {
      "client_info": {
        "mobilesdk_app_id": "1:770293342505:android:1e0468955304e625271738",
        "android_client_info": {
          "package_name": "com.easipos.weborder.demo"
        }
      },
      "oauth_client": [
        {
          "client_id": "770293342505-he88tmqv7q3a83c8mka6v5b6b66j33gb.apps.googleusercontent.com",
          "client_type": 3
        }
      ],
      "api_key": [
        {
          "current_key": "AIzaSyC3SUcjTnkuP7IL9g23a7bRK2e4PCqf36k"
        }
      ],
      "services": {
        "appinvite_service": {
          "other_platform_oauth_client": [
            {
              "client_id": "770293342505-he88tmqv7q3a83c8mka6v5b6b66j33gb.apps.googleusercontent.com",
              "client_type": 3
            }
          ]
        }
      }
    }
  ],
  "configuration_version": "1"
}